[gd_resource type="SpatialMaterial" format=2]

[resource]
params_diffuse_mode = 2
albedo_color = Color( 0.988235, 0.580392, 0.101961, 1 )
metallic = 0.19
metallic_specular = 0.95
clearcoat_enabled = true
clearcoat = 1.0
clearcoat_gloss = 0.5
subsurf_scatter_enabled = true
subsurf_scatter_strength = 0.04
